There were 1 sun up hours in this climate file
Total Ibh/Lbh: 0.000000
oconv: warning - zero area for polygon "obj.135"
oconv: warning - zero area for polygon "obj.136"
oconv: warning - zero area for polygon "obj.137"
oconv: warning - zero area for polygon "obj.138"
rpict: 0 rays, 0.00% after 0.000u 0.000s 0.000r hours on ip-172-31-11-80 (PID 21495)
rpict: 1368909 rays, 73.50% after 0.002u 0.000s 0.004r hours on ip-172-31-11-80 (PID 21495)
rpict: 1682052 rays, 100.00% after 0.002u 0.000s 0.005r hours on ip-172-31-11-80 (PID 21495)
